{
  "routes": [
    {
      "method": "GET",
      "path": "/adminpages",
      "handler": "Adminpage.find",
      "config": {
        "policies": []
      }
    },
    {
      "method": "GET",
      "path": "/adminpages/count",
      "handler": "Adminpage.count",
      "config": {
        "policies": []
      }
    },
    {
      "method": "GET",
      "path": "/adminpages/:id",
      "handler": "Adminpage.findOne",
      "config": {
        "policies": []
      }
    },
    {
      "method": "POST",
      "path": "/adminpages",
      "handler": "Adminpage.create",
      "config": {
        "policies": []
      }
    },
    {
      "method": "PUT",
      "path": "/adminpages/:id",
      "handler": "Adminpage.update",
      "config": {
        "policies": []
      }
    },
    {
      "method": "DELETE",
      "path": "/adminpages/:id",
      "handler": "Adminpage.delete",
      "config": {
        "policies": []
      }
    }
  ]
}
